waves/PrimeUsage/test.vcd
$version Generated by VerilatedVcd $end
$date 2022年04月09日 星期六 19时06分26秒 $end
$timescale 1ps $end

 $scope module TOP $end
  $var wire  1 $ io_isPrime $end
  $var wire  5 # io_value [4:0] $end
  $scope module PrimeUsage $end
   $var wire  1 $ io_isPrime $end
   $var wire  5 # io_value [4:0] $end
   $var wire  1 % when_Prime_l25 $end
   $var wire  1 & when_Prime_l25_1 $end
   $var wire  1 / when_Prime_l25_10 $end
   $var wire  1 0 when_Prime_l25_11 $end
   $var wire  1 1 when_Prime_l25_12 $end
   $var wire  1 ' when_Prime_l25_2 $end
   $var wire  1 ( when_Prime_l25_3 $end
   $var wire  1 ) when_Prime_l25_4 $end
   $var wire  1 * when_Prime_l25_5 $end
   $var wire  1 + when_Prime_l25_6 $end
   $var wire  1 , when_Prime_l25_7 $end
   $var wire  1 - when_Prime_l25_8 $end
   $var wire  1 . when_Prime_l25_9 $end
  $upscope $end
 $upscope $end
$enddefinitions $end


#0
b00010 #
1$
0%
0&
1'
0(
0)
0*
0+
0,
0-
0.
0/
00
01
#1
b11010 #
0$
0'
#2
b11111 #
1$
11
#3
b00011 #
1(
01
#4
b01110 #
0$
0(
#5
b10110 #
#6
b01001 #
#7
b10000 #
#8
b01010 #
#9
b10000 #
#10
b11111 #
1$
11
#11
b10110 #
0$
01
#12
b01001 #
#13
b11100 #
#14
b10100 #
#15
b10000 #
#16
b00001 #
1$
1&
#17
b10101 #
0$
0&
#18
b00011 #
1$
1(
#19
b11001 #
0$
0(
#20
b11011 #
#21
b00001 #
1$
1&
#22
b11001 #
0$
0&
#23
b10101 #
#24
b01010 #
#25
b11000 #
#26
b10100 #
#27
b10000 #
#28
b11110 #
#29
b00110 #
#30
b01101 #
1$
1,
#31
b00111 #
1*
0,
#32
b11001 #
0$
0*
#33
b10000 #
#34
b10010 #
#35
b00111 #
1$
1*
#36
b00010 #
1'
0*
#37
b10101 #
0$
0'
#38
b11000 #
#39
b10100 #
#40
b11001 #
#41
b10101 #
#42
b01111 #
#43
b01011 #
1$
1+
#44
b01100 #
0$
0+
#45
b10110 #
#46
b10111 #
1$
1/
#47
b01010 #
0$
0/
#48
b01000 #
#49
b00101 #
1$
1)
#50
b10010 #
0$
0)
#51
b01111 #
#52
b10010 #
#53
b11010 #
#54
#55
b11111 #
1$
11
#56
b10110 #
0$
01
#57
b00000 #
1$
1%
#58
b10101 #
0$
0%
#59
b01000 #
#60
b00000 #
1$
1%
#61
b10101 #
0$
0%
#62
b00111 #
1$
1*
#63
b01001 #
0$
0*
#64
b01010 #
#65
b01101 #
1$
1,
#66
b01000 #
0$
0,
#67
b10001 #
1$
1-
#68
b10101 #
0$
0-
#69
b11011 #
#70
b10110 #
#71
b00110 #
#72
b11101 #
1$
10
#73
b10011 #
1.
00
#74
b01011 #
1+
0.
#75
b01000 #
0$
0+
#76
b00111 #
1$
1*
#77
b01010 #
0$
0*
#78
b10010 #
#79
b10110 #
#80
b11100 #
#81
b00000 #
1$
1%
#82
b10111 #
0%
1/
#83
b01111 #
0$
0/
#84
b11011 #
#85
b00000 #
1$
1%
#86
b11110 #
0$
0%
#87
b11011 #
#88
b01010 #
#89
b00110 #
#90
b10110 #
#91
b01100 #
#92
b01110 #
#93
b00001 #
1$
1&
#94
b01110 #
0$
0&
#95
b00000 #
1$
1%
#96
b11100 #
0$
0%
#97
b11001 #
#98
b00111 #
1$
1*
#99
b01001 #
0$
0*
